{
	"id": "c2ea4e11-0b8a-4c77-bbd9-853e595565d8",
	"name": "corda-play",
	"values": [
		{
			"key": "host.kasithbk",
			"value": "http://localhost:8080",
			"enabled": true
		},
		{
			"key": "host.bkkbthbk",
			"value": "http://localhost:8081",
			"enabled": true
		}
	],
	"_postman_variable_scope": "environment",
	"_postman_exported_at": "2019-12-23T15:56:09.483Z",
	"_postman_exported_using": "Postman/7.13.0"
}